traces/alu_test.txt
xcelium> run
--------------------------------------alu_32---------------------------------------

--------------------------------------add_32---------------------------------------
          a              b   control shamt      result  carry_out   overflow   zero
          1              2   1000        0           3  0           0             0
 2139719833     1166641305   1000        0  -988606158  0           1             0
         -1              1   1000        0           0  1           0             1
         -1    -2147483648   1000        0  2147483647  1           1             0
         -1    -2147483648   1000        5  2147483647  1           1             0

--------------------------------------sub_32---------------------------------------
          a              b   control shamt      result  carry_out   overflow   zero
 2139719833     1166641305   1010        0   973078528  0           0             0
 -175535975     2139719833   1010        0  1979711488  0           1             0
          7             12   1010        0          -5  1           0             0
 2139719833     -175535975   1010        0 -1979711488  1           1             0
 2139719833     2139719833   1010        0           0  0           0             1

--------------------------------------slt_32---------------------------------------
          a              b   control shamt      result  carry_out   overflow   zero
 2147483647             -7   1001        0           0  0           1             1
-2147483648              9   1001        0           1  0           1             0
         12             -7   1001        0           0  0           0             1
         10              4   1001        0           0  0           0             1
        -13             -7   1001        0           1  0           0             0
        -13            -13   1001        0           0  0           0             1
        -13         -65533   1001        0           0  0           0             1

--------------------------------------sltu_32--------------------------------------
          a              b   control shamt      result  carry_out   overflow   zero
 2147483647             -7   1011        0           1  0           1             0
-2147483648              9   1011        0           0  0           1             1
         12             -7   1011        0           1  0           0             0
         10              4   1011        0           0  0           0             1
        -13             -7   1011        0           1  0           0             0
        -13            -13   1011        0           0  0           0             1
        -13         -65533   1011        0           0  0           0             1

--------------------------------------and_32---------------------------------------
          a              b   control shamt      result  carry_out   overflow   zero
          0              0   1100        0           0  0           0             1
-2004874240       16802816   1100        0        1024  0           0             0

---------------------------------------or_32---------------------------------------
          a              b   control shamt      result  carry_out   overflow   zero
          0              0   1101        0           0  0           0             1
          2              8   1101        0          10  0           0             0
          6             12   1101        0          14  0           0             0

--------------------------------------xor_32---------------------------------------
          a              b   control shamt      result  carry_out   overflow   zero
          0              0   1110        0           0  0           0             1
          2              8   1110        0          10  0           0             0
          6             12   1110        0          10  0           0             0

--------------------------------------sll_32---------------------------------------
          a              b   control shamt      result  carry_out   overflow   zero
          0              1   0000        0           1  0           0             0
          0              2   0000        2           8  0           0             0
          0              6   0000       20     6291456  0           0             0
          0             96   0000       29           0  0           0             1

--------------------------------------srl_32---------------------------------------
          a              b   control shamt      result  carry_out   overflow   zero
          0    -2147483648   0010        2   536870912  0           0             0
          0        1048576   0010        9        2048  0           0             0
          0              6   0010       20           0  0           0             1

-----------------------------------------------------------------------------------
Simulation complete via $finish(1) at time 410 NS + 0
../test/alu_32_tb.v:191         $finish;
